[gd_scene load_steps=3 format=2]

[ext_resource path="res://Scenes/Player.tscn" type="PackedScene" id=1]
[ext_resource path="res://Scripts/PlayerCharacter.gd" type="Script" id=2]

[node name="PlayerCharacter" type="Node2D"]
script = ExtResource( 2 )

[node name="Player" parent="." instance=ExtResource( 1 )]
