[gd_scene load_steps=4 format=2]

[ext_resource path="res://Scripts/Player.gd" type="Script" id=1]
[ext_resource path="res://Assets/Sprites/icon.png" type="Texture" id=2]

[sub_resource type="RectangleShape2D" id=1]
extents = Vector2( 32, 31.5 )

[node name="Player" type="KinematicBody2D"]
script = ExtResource( 1 )

[node name="Camera2D" type="Camera2D" parent="."]

[node name="BoostTimer" type="Timer" parent="."]
wait_time = 3.0
one_shot = true

[node name="Sprite" type="Sprite" parent="."]
rotation = 1.5708
texture = ExtResource( 2 )

[node name="CollisionShape2D" type="CollisionShape2D" parent="."]
shape = SubResource( 1 )
